set param_card mn1 1000000
set param_card mn2 1000000
set param_card mn3 5000
set param_card ven1 0.000000e+00
set param_card ven2 0.000000e+00
set param_card ven3 0.000000e+00
set param_card vmun1 0.000000e+00
set param_card vmun2 0.000000e+00
set param_card vmun3 0.000000e+00
set param_card vtan1 0.000000e+00
set param_card vtan2 0.000000e+00
set param_card vtan3 1.0
set param_card decay wn3 AUTO
